'[2
'G 1000
'G 2000
'G 3000
'G 4000
'G 5000
'G 6000
'G 7000
'G 8000
'#1000        '/ 放a
 'H b1001     '/成品帽 吸嘴a吸气
 'P'303 2     '/成品帽往前
 'T 500 '= 0 'J -2
 'L b1        '/吸嘴a关气
 'C'306 1     '/关闭pid
 'I'310 100   '/3帽设定电流
 'T 500 '= 0 'J -2
 'L b1000     '/成品帽关气
 'P'303 1     '/成品帽 后退
 'C'306 4     '/ 开启pid
 'T 500 '= 0 'J -2
 '! 200
 'U 1
 'G -3
'#2000   '/吸嘴b放芯片
 'H b1010  '/成品帽 吸嘴B吸气
 'P'303 2 '/成品帽往前
 'T 500 '= 0 'J -2
 'L b10    '/吸嘴B关气
 'C'306 1   '/关闭pid
 'I'310 30  '/3帽设定电流
 'T 500 '= 0 'J -2
 'L b1000  '/成品帽关气
 'P'303 1   '/成品帽 后退
 'C'306 4   '/开启pid
 'T 500 '= 0 'J -2
 '! 200
 'U 1
 'G -4
'#3000 '/ 归零
 'L b111111111111
 'P' 103 1   '/1帽位置到1
 'P' 203 1
 'P' 303 1
 'C' 106 3   '/开启pid
 'C' 206 3
 'C' 306 3
 'T 500  '= 0  'J -2
 'H b00100000000
 'T 1000  '= 0  'J -2
 'L b111111111111
 'H b110000000000
 'T 50  '= 0  'J -2
 'H b111000000000
 'T 1000  '= 0  'J -2
 'L b111111111111
 'G -1
'#4000 '/吸嘴a上
 'L b111000000000
 'H b010000000000   '/吸嘴A打上
 'T 50 '= 0 'J -2
 'H b011000000000   '/触发
 'T 1000 '= 0 'J -2 '/延时 20毫秒
 'G -1
'#5000 '/吸嘴b上
 'L b111000000000
 'H b100000000000   '/吸嘴b打上
 'T 50 '= 0 'J -2
 'H b101000000000   '/触发
 'T 1000 '= 0 'J -2 '/延时 20毫秒
 'G -1
'#6000 '/吸嘴1位
 'L b111000000000
 'H b110000000000   '/吸嘴b打上
 'T 50 '= 0 'J -2
 'H b111000000000   '/触发
 'T 1000 '= 0 'J -2 '/延时 20毫秒
 'G -1
'#7000 '/吸嘴a上 吸嘴b下
 'L b111000000000
 'H b010000000010   '/吸嘴A打上 吸嘴b吸气
 'T 50 '= 0 'J -2
 'H b011000000000   '/触发
 'T 1000 '= 0 'J -2 '/延时 20毫秒
 '! 200
 'U 1
 'G -1
'#8000 '/吸嘴b上 吸嘴a下
 'L b111000000000
 'H b100000000001   '/吸嘴b打上  吸嘴a吸气
 'T 50 '= 0 'J -2
 'H b101000000000   '/触发
 'T 1000 '= 0 'J -2 '/延时 20毫秒
 '! 200
 'U 1
 'G -1
 'G -999
']